<?xml version="1.0" encoding="UTF-8"?>
<svg width="24px" height="6px" viewBox="0 0 24 6" version="1.1" xmlns="http://www.w3.org/2000/svg" xmlns:xlink="http://www.w3.org/1999/xlink">
    <!-- Generator: Sketch 51.1 (57501) - http://www.bohemiancoding.com/sketch -->
    <title>wave2 copy</title>
    <desc>Created with Sketch.</desc>
    <defs></defs>
    <g id="Дизайн" stroke="none" stroke-width="1" fill="none" fill-rule="evenodd">
        <g id="Surf-MacBook-13" transform="translate(-820.000000, -4428.000000)" stroke="#07FF84" stroke-width="2">
            <g id="Group-31" transform="translate(0.000000, 3767.000000)">
                <g id="Group-24" transform="translate(820.000000, 123.000000)">
                    <g id="Group-30" transform="translate(0.000000, 458.000000)">
                        <path d="M0,81 C5.37880094,81 5.94031353,84.8681111 11.8806271,84.8681111 C17.8209406,84.8681111 17.8209406,81 23.7612541,81" id="wave2-copy"></path>
                    </g>
                </g>
            </g>
        </g>
    </g>
</svg>